%YAML 1.1
%TAG !u! tag:unity3d.com,2011:
--- !u!1045 &1
EditorBuildSettings:
  m_ObjectHideFlags: 0
  serializedVersion: 2
  m_Scenes:
  - enabled: 1
    path: Assets/Scenes/Init.unity
  - enabled: 1
    path: Assets/Scenes/Level_Stalks.unity
  - enabled: 1
    path: Assets/Scenes/Level_Bugs.unity
  - enabled: 1
    path: Assets/Scenes/Level_Flowers.unity
  - enabled: 1
    path: Assets/Scenes/End.unity
